# 复活红队的床

# 如果已有床则退出
execute if score $red_bed team matches 1 if entity @e[type=marker,tag=red_bed] run return 2

# 生成实体
summon marker ~ ~ ~ {Tags:["bed","red_bed"]}

# 应用床位置和朝向
data modify entity @e[type=marker,tag=red_bed,limit=1] Pos set from storage bw:map team.red.bed.pos
data modify entity @e[type=marker,tag=red_bed,limit=1] Rotation set from storage bw:map team.red.bed.rotation

# 计分板更新
scoreboard players set $red_bed team 1

# 清除破坏特效
execute as @e[type=marker,tag=red_bed] at @s run kill @e[type=text_display,tag=bed,distance=0..3,limit=1,sort=nearest]

# 恢复方块
function bw:game/bed/team/red_restore