{
    "pack": {
        "pack_format": 15,
        "description": "Server Datapark for BedWars"
    },
    "filter": {
        "block": [
            {
                "namespace": "minecraft",
                "path": "recipes/*"
            },
            {
                "namespace": "minecraft",
                "path": "advancements/*"
            }
        ]
    }

}