scoreboard players set $random_min temp 1
execute store result score $random_max temp run scoreboard players get $max_mutation mutation 
function lib:random

execute if score $random temp = $last_mutation mutation run function bw:game/system_init/mutation_get_loop