# 重置地图复制系统
kill @e[type=marker,tag=map_clone_copy,tag=temp]
kill @e[type=marker,tag=map_clone_paste,tag=temp]
schedule clear bw:lobby/map/init/clone/marker_clone
scoreboard players reset $map_copying temp
bossbar set lobby players
fill -100 43 140 101 -64 160 air