{
  "type": "minecraft:crafting_shaped",
  "category": "equipment",
  "group": "sword",
  "key": {
    "#": {
      "item": "minecraft:stick"
    },
    "X": {
      "tag": "minecraft:planks"
    }
  },
  "pattern": [
    "X",
    "X",
    "#"
  ],
  "result": {
    "item": "minecraft:wooden_sword"
  },
  "show_notification": true
}